leikskolar
…
    summarise(vidvera = sum(vidvera * hlutf),
              .groups = "drop") |> 
    inner_join(
        d1 |> 
            pivot_wider(names_from = fjoldi, values_from = value) |> 
            janitor::clean_names(),
        by = c("ar", "landsvaedi", "aldur")
    ) |> 
    group_by(ar,landsvaedi) |> 
    mutate(p_vidvera = vidvera * fjoldi / sum(fjoldi)) |> 
    filter(is.finite(p_vidvera)) |> 
    summarise(mean_vidvera = sum(p_vidvera),
              .groups ="drop")

# A tibble: 69 × 3
      ar landsvaedi                        mean_vidvera
   <dbl> <chr>                                    <dbl>
 1  1998 Höfuðborgarsvæði                          6.86
 2  1998 Höfuðborgarsvæði utan Reykjavíkur         6.57
 3  1998 Reykjavík                                 7.02
 4  1999 Höfuðborgarsvæði                          7.12
 5  1999 Höfuðborgarsvæði utan Reykjavíkur         6.75
 6  1999 Reykjavík                                 7.33
 7  2000 Höfuðborgarsvæði                          7.37
 8  2000 Höfuðborgarsvæði utan Reykjavíkur         7.08
 9  2000 Reykjavík                                 7.55
10  2001 Höfuðborgarsvæði                          7.64
# … with 59 more rows
…
